EESchema Schematic File Version 2
LIBS:power
LIBS:device
LIBS:transistors
LIBS:conn
LIBS:linear
LIBS:regul
LIBS:74xx
LIBS:cmos4000
LIBS:adc-dac
LIBS:memory
LIBS:xilinx
LIBS:microcontrollers
LIBS:dsp
LIBS:microchip
LIBS:analog_switches
LIBS:motorola
LIBS:texas
LIBS:intel
LIBS:audio
LIBS:interface
LIBS:digital-audio
LIBS:philips
LIBS:display
LIBS:cypress
LIBS:siliconi
LIBS:opto
LIBS:atmel
LIBS:contrib
LIBS:valves
LIBS:Serial-SHIM-cache
EELAYER 25 0
EELAYER END
$Descr A4 11693 8268
encoding utf-8
Sheet 1 1
Title ""
Date ""
Rev ""
Comp ""
Comment1 ""
Comment2 ""
Comment3 ""
Comment4 ""
$EndDescr
$Comp
L CONN_01X04 Serial1
U 1 1 59BCE9F7
P 7850 4800
F 0 "Serial1" H 7850 5050 50  0000 C CNN
F 1 "CONN_01X04" H 7950 4550 50  0000 C CNN
F 2 "Socket_Strips:Socket_Strip_Angled_1x04" H 8450 5150 50  0000 C CNN
F 3 "" H 7850 4800 50  0000 C CNN
	1    7850 4800
	1    0    0    -1  
$EndComp
$Comp
L CONN_02X05 PI-GPIO1
U 1 1 59BCEAE4
P 6750 4850
F 0 "PI-GPIO1" H 6750 5150 50  0000 C CNN
F 1 "CONN_02X05" H 6750 4550 50  0000 C CNN
F 2 "Pin_Headers:Pin_Header_Straight_2x05" H 6200 5250 50  0000 C CNN
F 3 "" H 6750 3650 50  0000 C CNN
	1    6750 4850
	1    0    0    -1  
$EndComp
Wire Wire Line
	7000 4850 7550 4850
Wire Wire Line
	7550 4850 7550 4750
Wire Wire Line
	7550 4750 7650 4750
Wire Wire Line
	7000 4950 7600 4950
Wire Wire Line
	7600 4950 7600 4850
Wire Wire Line
	7600 4850 7650 4850
Wire Wire Line
	7000 5050 7650 5050
Wire Wire Line
	7650 5050 7650 4950
$Comp
L GND #PWR01
U 1 1 59BCEDDF
P 7300 4850
F 0 "#PWR01" H 7300 4600 50  0001 C CNN
F 1 "GND" H 7300 4700 50  0000 C CNN
F 2 "" H 7300 4850 50  0000 C CNN
F 3 "" H 7300 4850 50  0000 C CNN
	1    7300 4850
	1    0    0    1   
$EndComp
$Comp
L +5V #PWR02
U 1 1 59BCF0FF
P 7900 4000
F 0 "#PWR02" H 7900 3850 50  0001 C CNN
F 1 "+5V" H 7900 4140 50  0000 C CNN
F 2 "" H 7900 4000 50  0000 C CNN
F 3 "" H 7900 4000 50  0000 C CNN
	1    7900 4000
	-1   0    0    1   
$EndComp
$Comp
L GND #PWR03
U 1 1 59BCF11C
P 8300 4000
F 0 "#PWR03" H 8300 3750 50  0001 C CNN
F 1 "GND" H 8300 3850 50  0000 C CNN
F 2 "" H 8300 4000 50  0000 C CNN
F 3 "" H 8300 4000 50  0000 C CNN
	1    8300 4000
	1    0    0    -1  
$EndComp
Wire Wire Line
	7000 4500 7000 4750
Connection ~ 7000 4650
Wire Wire Line
	7000 4650 7650 4650
NoConn ~ 6500 4650
NoConn ~ 6500 4750
NoConn ~ 6500 4850
NoConn ~ 6500 4950
NoConn ~ 6500 5050
$Comp
L PWR_FLAG #FLG04
U 1 1 59C3E871
P 7900 4000
F 0 "#FLG04" H 7900 4095 50  0001 C CNN
F 1 "PWR_FLAG" H 7900 4180 50  0000 C CNN
F 2 "" H 7900 4000 50  0000 C CNN
F 3 "" H 7900 4000 50  0000 C CNN
	1    7900 4000
	1    0    0    -1  
$EndComp
$Comp
L PWR_FLAG #FLG05
U 1 1 59C3E889
P 8300 4000
F 0 "#FLG05" H 8300 4095 50  0001 C CNN
F 1 "PWR_FLAG" H 8300 4180 50  0000 C CNN
F 2 "" H 8300 4000 50  0000 C CNN
F 3 "" H 8300 4000 50  0000 C CNN
	1    8300 4000
	1    0    0    -1  
$EndComp
$Comp
L +5V #PWR06
U 1 1 59C3E8A7
P 7000 4500
F 0 "#PWR06" H 7000 4350 50  0001 C CNN
F 1 "+5V" H 7000 4640 50  0000 C CNN
F 2 "" H 7000 4500 50  0000 C CNN
F 3 "" H 7000 4500 50  0000 C CNN
	1    7000 4500
	1    0    0    -1  
$EndComp
$EndSCHEMATC
